…
**結果から生死の予測**

今回のベイズ推定では，テストデータの乗客の生死について，各チェイン3,000個の値（0か1）をベルヌーイ分布から生成しています．つまり，1人の乗客につき合計で12,000個の0か1の値を持っています[^sub]．

[^sub]: チェインは4つあるので．

各乗客が持つ0か1の値のうち，1（生存）が50%以上なら生存，50%未満なら死亡と判断します[^DorA]．この操作をRで行います．

[^DorA]: 12,000回の乱数生成で何度１（つまり生存）が生成されたか．6,000回以上なら生存とします．

テストデータの乗客の生死については結果の`Y_pred`にあります．

```r:titanic.R
> fit_titanic$summary('Y_pred')
# A tibble: 418 × 10
   variable     mean median    sd   mad    q5   q95  rhat ess_bulk ess_tail
   <chr>       <dbl>  <dbl> <dbl> <dbl> <dbl> <dbl> <dbl>    <dbl>    <dbl>
 1 Y_pred[1]  0.0843      0 0.278     0     0     1  1.00   11530.       NA
 2 Y_pred[2]  0.387       0 0.487     0     0     1  1.00   11882.       NA
 3 Y_pred[3]  0.0833      0 0.276     0     0     1  1.00   11842.       NA
 4 Y_pred[4]  0.104       0 0.305     0     0     1  1.00   11749.       NA
 5 Y_pred[5]  0.597       1 0.490     0     0     1  1.00   11745.       NA
 6 Y_pred[6]  0.174       0 0.379     0     0     1  1.00   12011.       NA
 7 Y_pred[7]  0.629       1 0.483     0     0     1  1.00   12053.       NA
 8 Y_pred[8]  0.192       0 0.394     0     0     1  1.00   11548.       NA
 9 Y_pred[9]  0.732       1 0.443     0     0     1  1.00   12085.       NA
10 Y_pred[10] 0.0728      0 0.260     0     0     1  1.00   11856.       NA
# ℹ 408 more rows
# ℹ Use `print(n = ...)` to see more rows
```
…
