…
#### 5. 結果の確認

結果を確認してみましょう．`$summary()`を使います．

```r:cmdstan.R
> fit$summary()
# A tibble: 105 × 10
   variable    mean  median       sd     mad      q5     q95  rhat
   <chr>      <dbl>   <dbl>    <dbl>   <dbl>   <dbl>   <dbl> <dbl>
 1 lp__      76.3    76.6   1.45     1.25e+0  73.5    78.0    1.00
 2 beta1     10.2    10.2   0.321    3.17e-1   9.72   10.8    1.00
 3 beta2      1.19    1.19  0.0106   1.08e-2   1.17    1.21   1.00
 4 beta3      0.200   0.200 0.000592 5.81e-4   0.199   0.201  1.00
 5 sigma      0.280   0.279 0.0205   2.01e-2   0.248   0.316  1.00
 6 mu[1]     91.6    91.6   0.0402   3.99e-2  91.5    91.6    1.00
 7 mu[2]    101.    101.    0.0284   2.82e-2 101.    101.     1.00
 8 mu[3]     87.8    87.8   0.0484   4.79e-2  87.7    87.9    1.00
 9 mu[4]    107.    107.    0.0554   5.49e-2 107.    107.     1.00
10 mu[5]     94.6    94.6   0.0342   3.40e-2  94.5    94.6    1.00
# ℹ 95 more rows
# ℹ 2 more variables: ess_bulk <dbl>, ess_tail <dbl>
# ℹ Use `print(n = ...)` to see more rows
```
…
